…
#calculating variable return on budget, adding to table in descending order by genre

ROB_table <- movies %>%
mutate(movies, return_on_budget = gross / budget) %>%
group_by(genre) %>%
summarise(return_on_budget) %>%
arrange(desc(return_on_budget)) %>%
#kable (col.names= c("Genre", "Return on Budget")) %>%
#kable_styling
print(ROB_table)

## # A tibble: 2,961 x 2
## # Groups:   genre [17]
##    genre     return_on_budget
##    <chr>                <dbl>
##  1 Horror               7194.
##  2 Biography            2716.
##  3 Horror               2342.
##  4 Comedy                410.
##  5 Horror                369.
##  6 Horror                369.
##  7 Action                292.
##  8 Horror                228.
##  9 Comedy                177.
## 10 Horror                157.
## # ... with 2,951 more rows
…
#grouping data by genre for density plot

ratings <- movies %>%
group_by(genre) %>%
summarise(rating)
ratings

## # A tibble: 2,961 x 2
## # Groups:   genre [17]
##    genre  rating
##    <chr>   <dbl>
##  1 Action    7.9
##  2 Action    7  
##  3 Action    8.1
##  4 Action    9  
##  5 Action    6.5
##  6 Action    8.7
##  7 Action    7.5
##  8 Action    8.5
##  9 Action    7.3
## 10 Action    7.2
## # ... with 2,951 more rows
…
